\relax 
\providecommand\hyper@newdestlabel[2]{}
\providecommand\HyperFirstAtBeginDocument{\AtBeginDocument}
\HyperFirstAtBeginDocument{\ifx\hyper@anchor\@undefined
\global\let\oldcontentsline\contentsline
\gdef\contentsline#1#2#3#4{\oldcontentsline{#1}{#2}{#3}}
\global\let\oldnewlabel\newlabel
\gdef\newlabel#1#2{\newlabelxx{#1}#2}
\gdef\newlabelxx#1#2#3#4#5#6{\oldnewlabel{#1}{{#2}{#3}}}
\AtEndDocument{\ifx\hyper@anchor\@undefined
\let\contentsline\oldcontentsline
\let\newlabel\oldnewlabel
\fi}
\fi}
\global\let\hyper@last\relax 
\gdef\HyperFirstAtBeginDocument#1{#1}
\providecommand\HyField@AuxAddToFields[1]{}
\providecommand\HyField@AuxAddToCoFields[2]{}
\providecommand \oddpage@label [2]{}
\@writefile{toc}{\contentsline {section}{\numberline {1}Din\IeC {\'a}mica No Lineal}{1}{section.1}}
\newlabel{dinuxe1mica-no-lineal}{{1}{1}{Dinámica No Lineal}{section.1}{}}
\@writefile{toc}{\contentsline {subsection}{\numberline {1.1}Trabajos Pr\IeC {\'a}cticos: Resonancias multidimensionales}{1}{subsection.1.1}}
\newlabel{trabajos-pruxe1cticos-resonancias-multidimensionales}{{1.1}{1}{Trabajos Prácticos: Resonancias multidimensionales}{subsection.1.1}{}}
\newlabel{ejercicio-1}{{1.1}{1}{Ejercicio 1:}{section*.1}{}}
\@writefile{toc}{\contentsline {paragraph}{Ejercicio 1:}{1}{section*.1}}
\newlabel{inciso-a}{{1.1}{1}{Inciso a):}{section*.2}{}}
\@writefile{toc}{\contentsline {subparagraph}{Inciso a):}{1}{section*.2}}
\newlabel{resolucion-inciso-a}{{1.1}{1}{Resolucion Inciso a):}{section*.3}{}}
\@writefile{toc}{\contentsline {subparagraph}{Resolucion Inciso a):}{1}{section*.3}}
\newlabel{inciso-b}{{1.1}{2}{Inciso b):}{section*.4}{}}
\@writefile{toc}{\contentsline {subparagraph}{Inciso b):}{2}{section*.4}}
\newlabel{resolucion-inciso-b}{{1.1}{2}{Resolucion Inciso b):}{section*.5}{}}
\@writefile{toc}{\contentsline {subparagraph}{Resolucion Inciso b):}{2}{section*.5}}
\newlabel{inciso-c}{{1.1}{2}{Inciso c):}{section*.6}{}}
\@writefile{toc}{\contentsline {subparagraph}{Inciso c):}{2}{section*.6}}
\newlabel{resolucion-inciso-c}{{1.1}{3}{Resolucion Inciso c):}{section*.7}{}}
\@writefile{toc}{\contentsline {subparagraph}{Resolucion Inciso c):}{3}{section*.7}}
\newlabel{ejercicio-2}{{1.1}{5}{Ejercicio 2:}{section*.8}{}}
\@writefile{toc}{\contentsline {paragraph}{Ejercicio 2:}{5}{section*.8}}
\newlabel{inciso-a}{{1.1}{6}{Inciso a):}{section*.9}{}}
\@writefile{toc}{\contentsline {subparagraph}{Inciso a):}{6}{section*.9}}
\newlabel{resolucion-inciso-a}{{1.1}{6}{Resolucion Inciso a):}{section*.10}{}}
\@writefile{toc}{\contentsline {subparagraph}{Resolucion Inciso a):}{6}{section*.10}}
\newlabel{inciso-b}{{1.1}{6}{Inciso b):}{section*.11}{}}
\@writefile{toc}{\contentsline {subparagraph}{Inciso b):}{6}{section*.11}}
\newlabel{resolucion-inciso-b}{{1.1}{6}{Resolucion Inciso b):}{section*.12}{}}
\@writefile{toc}{\contentsline {subparagraph}{Resolucion Inciso b):}{6}{section*.12}}
\newlabel{inciso-c}{{1.1}{6}{Inciso c):}{section*.13}{}}
\@writefile{toc}{\contentsline {subparagraph}{Inciso c):}{6}{section*.13}}
\newlabel{resolucion-inciso-c}{{1.1}{6}{Resolucion Inciso c):}{section*.14}{}}
\@writefile{toc}{\contentsline {subparagraph}{Resolucion Inciso c):}{6}{section*.14}}
\newlabel{inciso-d}{{1.1}{7}{Inciso d):}{section*.15}{}}
\@writefile{toc}{\contentsline {subparagraph}{Inciso d):}{7}{section*.15}}
\newlabel{resolucion-inciso-d}{{1.1}{7}{Resolucion Inciso d):}{section*.16}{}}
\@writefile{toc}{\contentsline {subparagraph}{Resolucion Inciso d):}{7}{section*.16}}
