\relax 
\providecommand\hyper@newdestlabel[2]{}
\providecommand\HyperFirstAtBeginDocument{\AtBeginDocument}
\HyperFirstAtBeginDocument{\ifx\hyper@anchor\@undefined
\global\let\oldcontentsline\contentsline
\gdef\contentsline#1#2#3#4{\oldcontentsline{#1}{#2}{#3}}
\global\let\oldnewlabel\newlabel
\gdef\newlabel#1#2{\newlabelxx{#1}#2}
\gdef\newlabelxx#1#2#3#4#5#6{\oldnewlabel{#1}{{#2}{#3}}}
\AtEndDocument{\ifx\hyper@anchor\@undefined
\let\contentsline\oldcontentsline
\let\newlabel\oldnewlabel
\fi}
\fi}
\global\let\hyper@last\relax 
\gdef\HyperFirstAtBeginDocument#1{#1}
\providecommand\HyField@AuxAddToFields[1]{}
\providecommand\HyField@AuxAddToCoFields[2]{}
\providecommand \oddpage@label [2]{}
\@writefile{toc}{\contentsline {section}{\numberline {1}Din\IeC {\'a}mica No Lineal}{1}{section.1}}
\newlabel{dinuxe1mica-no-lineal}{{1}{1}{Dinámica No Lineal}{section.1}{}}
\@writefile{toc}{\contentsline {subsection}{\numberline {1.1}Trabajos Pr\IeC {\'a}cticos: p\IeC {\'e}ndulo Simple}{1}{subsection.1.1}}
\newlabel{trabajos-pruxe1cticos-puxe9ndulo-simple}{{1.1}{1}{Trabajos Prácticos: péndulo Simple}{subsection.1.1}{}}
\newlabel{ejercicio-1}{{1.1}{1}{Ejercicio 1:}{section*.1}{}}
\@writefile{toc}{\contentsline {paragraph}{Ejercicio 1:}{1}{section*.1}}
\newlabel{resoluciuxf3n-ejercicio-1}{{1.1}{1}{Resolución Ejercicio 1:}{section*.2}{}}
\@writefile{toc}{\contentsline {paragraph}{Resoluci\IeC {\'o}n Ejercicio 1:}{1}{section*.2}}
\newlabel{otra-forma-de-resolver-el-problema}{{1.1}{15}{Otra forma de resolver el problema:}{section*.3}{}}
\@writefile{toc}{\contentsline {paragraph}{Otra forma de resolver el problema:}{15}{section*.3}}
\newlabel{ejercicio-2}{{1.1}{30}{Ejercicio 2:}{section*.4}{}}
\@writefile{toc}{\contentsline {paragraph}{Ejercicio 2:}{31}{section*.4}}
\newlabel{resoluciuxf3n-ejercicio-2}{{1.1}{31}{Resolución Ejercicio 2:}{section*.5}{}}
\@writefile{toc}{\contentsline {paragraph}{Resoluci\IeC {\'o}n Ejercicio 2:}{31}{section*.5}}
\newlabel{ejercicio-3}{{1.1}{33}{Ejercicio 3:}{section*.6}{}}
\@writefile{toc}{\contentsline {paragraph}{Ejercicio 3:}{33}{section*.6}}
\newlabel{resoluciuxf3n-ejercicio-3}{{1.1}{33}{Resolución Ejercicio 3:}{section*.7}{}}
\@writefile{toc}{\contentsline {paragraph}{Resoluci\IeC {\'o}n Ejercicio 3:}{33}{section*.7}}
\newlabel{ejercicio-4}{{1.1}{34}{Ejercicio 4:}{section*.8}{}}
\@writefile{toc}{\contentsline {paragraph}{Ejercicio 4:}{34}{section*.8}}
\newlabel{resoluciuxf3n-ejercicio-4}{{1.1}{35}{Resolución Ejercicio 4:}{section*.9}{}}
\@writefile{toc}{\contentsline {paragraph}{Resoluci\IeC {\'o}n Ejercicio 4:}{35}{section*.9}}
\newlabel{ejercicio-5}{{1.1}{36}{Ejercicio 5:}{section*.10}{}}
\@writefile{toc}{\contentsline {paragraph}{Ejercicio 5:}{36}{section*.10}}
\newlabel{resoluciuxf3n-ejercicio-5}{{1.1}{36}{Resolución Ejercicio 5:}{section*.11}{}}
\@writefile{toc}{\contentsline {paragraph}{Resoluci\IeC {\'o}n Ejercicio 5:}{37}{section*.11}}
\newlabel{estabilidad-lineal-de-los-puntos-fijos.}{{1.1}{37}{Estabilidad lineal de los puntos fijos}{section*.12}{}}
\@writefile{toc}{\contentsline {subparagraph}{Estabilidad lineal de los puntos fijos.}{37}{section*.12}}
\newlabel{estabilidad-del-punto-fijo-p_1-pi-0.}{{1.1}{38}{\texorpdfstring {Estabilidad del punto fijo \(P_{1} := (\pi , 0)\).}{Estabilidad del punto fijo P\_\{1\} := (\textbackslash {}pi, 0).}}{section*.13}{}}
\@writefile{toc}{\contentsline {subparagraph}{Estabilidad del punto fijo \(P_{1} := (\pi , 0)\).}{38}{section*.13}}
\newlabel{estabilidad-del-punto-fijo-p_2-0-0.}{{1.1}{40}{\texorpdfstring {Estabilidad del punto fijo \(P_{2} := (0, 0)\).}{Estabilidad del punto fijo P\_\{2\} := (0, 0).}}{section*.14}{}}
\@writefile{toc}{\contentsline {subparagraph}{Estabilidad del punto fijo \(P_{2} := (0, 0)\).}{40}{section*.14}}
