\relax 
\providecommand\hyper@newdestlabel[2]{}
\providecommand\HyperFirstAtBeginDocument{\AtBeginDocument}
\HyperFirstAtBeginDocument{\ifx\hyper@anchor\@undefined
\global\let\oldcontentsline\contentsline
\gdef\contentsline#1#2#3#4{\oldcontentsline{#1}{#2}{#3}}
\global\let\oldnewlabel\newlabel
\gdef\newlabel#1#2{\newlabelxx{#1}#2}
\gdef\newlabelxx#1#2#3#4#5#6{\oldnewlabel{#1}{{#2}{#3}}}
\AtEndDocument{\ifx\hyper@anchor\@undefined
\let\contentsline\oldcontentsline
\let\newlabel\oldnewlabel
\fi}
\fi}
\global\let\hyper@last\relax 
\gdef\HyperFirstAtBeginDocument#1{#1}
\providecommand\HyField@AuxAddToFields[1]{}
\providecommand\HyField@AuxAddToCoFields[2]{}
\providecommand \oddpage@label [2]{}
\@writefile{toc}{\contentsline {section}{\numberline {1}Din\IeC {\'a}mica No Lineal}{1}{section.1}}
\newlabel{dinuxe1mica-no-lineal}{{1}{1}{Dinámica No Lineal}{section.1}{}}
\@writefile{toc}{\contentsline {subsection}{\numberline {1.1}Trabajos Pr\IeC {\'a}cticos: Revisi\IeC {\'o}n de la formulaci\IeC {\'o}n Hamiltoniana}{1}{subsection.1.1}}
\newlabel{trabajos-pruxe1cticos-revisiuxf3n-de-la-formulaciuxf3n-hamiltoniana}{{1.1}{1}{Trabajos Prácticos: Revisión de la formulación Hamiltoniana}{subsection.1.1}{}}
\newlabel{ejercicio-1}{{1.1}{1}{Ejercicio 1:}{section*.1}{}}
\@writefile{toc}{\contentsline {paragraph}{Ejercicio 1:}{1}{section*.1}}
\newlabel{resoluciuxf3n-ejercicio-1}{{1.1}{1}{Resolución Ejercicio 1:}{section*.2}{}}
\@writefile{toc}{\contentsline {paragraph}{Resoluci\IeC {\'o}n Ejercicio 1:}{1}{section*.2}}
\newlabel{ejercicio-2}{{1.1}{3}{Ejercicio 2:}{section*.3}{}}
\@writefile{toc}{\contentsline {paragraph}{Ejercicio 2:}{3}{section*.3}}
\newlabel{resoluciuxf3n-ejercicio-2}{{1.1}{3}{Resolución Ejercicio 2:}{section*.4}{}}
\@writefile{toc}{\contentsline {paragraph}{Resoluci\IeC {\'o}n Ejercicio 2:}{3}{section*.4}}
\newlabel{soluciuxf3n-para-la-parte-temporal}{{1.1}{4}{Solución para la parte temporal:}{section*.5}{}}
\@writefile{toc}{\contentsline {subparagraph}{Soluci\IeC {\'o}n para la parte temporal:}{4}{section*.5}}
\newlabel{soluciuxf3n-para-la-parte-espacial}{{1.1}{4}{Solución para la parte espacial:}{section*.6}{}}
\@writefile{toc}{\contentsline {subparagraph}{Soluci\IeC {\'o}n para la parte espacial:}{4}{section*.6}}
\newlabel{soluciuxf3n-general}{{1.1}{5}{Solución general:}{section*.7}{}}
\@writefile{toc}{\contentsline {subparagraph}{Soluci\IeC {\'o}n general:}{5}{section*.7}}
\newlabel{ejercicio-3}{{1.1}{6}{Ejercicio 3:}{section*.8}{}}
\@writefile{toc}{\contentsline {paragraph}{Ejercicio 3:}{6}{section*.8}}
\newlabel{resoluciuxf3n-ejercicio-3}{{1.1}{6}{Resolución Ejercicio 3:}{section*.9}{}}
\@writefile{toc}{\contentsline {paragraph}{Resoluci\IeC {\'o}n Ejercicio 3:}{6}{section*.9}}
\newlabel{resoluciuxf3n-de-la-coordenada-phi}{{1.1}{7}{\texorpdfstring {Resolución de la coordenada $\phi $:}{Resolución de la coordenada \textbackslash {}phi:}}{section*.10}{}}
\@writefile{toc}{\contentsline {subparagraph}{Resoluci\IeC {\'o}n de la coordenada $\phi $:}{7}{section*.10}}
\newlabel{resoluciuxf3n-de-la-coordenada-r}{{1.1}{8}{\texorpdfstring {Resolución de la coordenada $r$:}{Resolución de la coordenada r:}}{section*.11}{}}
\@writefile{toc}{\contentsline {subparagraph}{Resoluci\IeC {\'o}n de la coordenada $r$:}{8}{section*.11}}
\newlabel{soluciuxf3n-para-la-funciuxf3n-caracteruxedstica-de-hamilton}{{1.1}{8}{Solución para la función característica de Hamilton:}{section*.12}{}}
\@writefile{toc}{\contentsline {subparagraph}{Soluci\IeC {\'o}n para la funci\IeC {\'o}n caracter\IeC {\'\i }stica de Hamilton:}{8}{section*.12}}
\newlabel{obtenciuxf3n-de-la-ecuaciuxf3n-de-la-uxf3rbita}{{1.1}{8}{Obtención de la ecuación de la órbita:}{section*.13}{}}
\@writefile{toc}{\contentsline {subparagraph}{Obtenci\IeC {\'o}n de la ecuaci\IeC {\'o}n de la \IeC {\'o}rbita:}{8}{section*.13}}
\newlabel{ejercicio-4}{{1.1}{9}{Ejercicio 4:}{section*.14}{}}
\@writefile{toc}{\contentsline {paragraph}{Ejercicio 4:}{9}{section*.14}}
\newlabel{resoluciuxf3n-ejercicio-4}{{1.1}{9}{Resolución Ejercicio 4:}{section*.15}{}}
\@writefile{toc}{\contentsline {paragraph}{Resoluci\IeC {\'o}n Ejercicio 4:}{9}{section*.15}}
