\relax 
\providecommand\hyper@newdestlabel[2]{}
\providecommand\HyperFirstAtBeginDocument{\AtBeginDocument}
\HyperFirstAtBeginDocument{\ifx\hyper@anchor\@undefined
\global\let\oldcontentsline\contentsline
\gdef\contentsline#1#2#3#4{\oldcontentsline{#1}{#2}{#3}}
\global\let\oldnewlabel\newlabel
\gdef\newlabel#1#2{\newlabelxx{#1}#2}
\gdef\newlabelxx#1#2#3#4#5#6{\oldnewlabel{#1}{{#2}{#3}}}
\AtEndDocument{\ifx\hyper@anchor\@undefined
\let\contentsline\oldcontentsline
\let\newlabel\oldnewlabel
\fi}
\fi}
\global\let\hyper@last\relax 
\gdef\HyperFirstAtBeginDocument#1{#1}
\providecommand\HyField@AuxAddToFields[1]{}
\providecommand\HyField@AuxAddToCoFields[2]{}
\providecommand \oddpage@label [2]{}
\@writefile{toc}{\contentsline {section}{\numberline {1}Din\IeC {\'a}mica No Lineal}{1}{section.1}}
\newlabel{dinuxe1mica-no-lineal}{{1}{1}{Dinámica No Lineal}{section.1}{}}
\@writefile{toc}{\contentsline {subsection}{\numberline {1.1}Trabajos Pr\IeC {\'a}cticos: Resonancias}{1}{subsection.1.1}}
\newlabel{trabajos-pruxe1cticos-resonancias}{{1.1}{1}{Trabajos Prácticos: Resonancias}{subsection.1.1}{}}
\newlabel{ejercicio-1}{{1.1}{1}{Ejercicio 1:}{section*.1}{}}
\@writefile{toc}{\contentsline {paragraph}{Ejercicio 1:}{1}{section*.1}}
\newlabel{resoluciuxf3n-ejercicio-1}{{1.1}{1}{Resolución Ejercicio 1:}{section*.2}{}}
\@writefile{toc}{\contentsline {paragraph}{Resoluci\IeC {\'o}n Ejercicio 1:}{1}{section*.2}}
\newlabel{ejercicio-2}{{1.1}{2}{Ejercicio 2:}{section*.3}{}}
\@writefile{toc}{\contentsline {paragraph}{Ejercicio 2:}{2}{section*.3}}
\newlabel{resoluciuxf3n-ejercicio-2}{{1.1}{2}{Resolución Ejercicio 2:}{section*.4}{}}
\@writefile{toc}{\contentsline {paragraph}{Resoluci\IeC {\'o}n Ejercicio 2:}{2}{section*.4}}
\newlabel{ejercicio-3}{{1.1}{4}{Ejercicio 3:}{section*.5}{}}
\@writefile{toc}{\contentsline {paragraph}{Ejercicio 3:}{4}{section*.5}}
\newlabel{resoluciuxf3n-ejercicio-3}{{1.1}{4}{Resolución Ejercicio 3:}{section*.6}{}}
\@writefile{toc}{\contentsline {paragraph}{Resoluci\IeC {\'o}n Ejercicio 3:}{4}{section*.6}}
\newlabel{ejercicio-4}{{1.1}{4}{Ejercicio 4:}{section*.7}{}}
\@writefile{toc}{\contentsline {paragraph}{Ejercicio 4:}{4}{section*.7}}
\newlabel{resoluciuxf3n-ejercicio-4}{{1.1}{4}{Resolución Ejercicio 4:}{section*.8}{}}
\@writefile{toc}{\contentsline {paragraph}{Resoluci\IeC {\'o}n Ejercicio 4:}{4}{section*.8}}
\newlabel{ejercicio-5}{{1.1}{5}{Ejercicio 5:}{section*.9}{}}
\@writefile{toc}{\contentsline {paragraph}{Ejercicio 5:}{5}{section*.9}}
\newlabel{resoluciuxf3n-ejercicio-5}{{1.1}{5}{Resolución Ejercicio 5:}{section*.10}{}}
\@writefile{toc}{\contentsline {paragraph}{Resoluci\IeC {\'o}n Ejercicio 5:}{5}{section*.10}}
\newlabel{ejercicio-6}{{1.1}{16}{Ejercicio 6:}{section*.11}{}}
\@writefile{toc}{\contentsline {paragraph}{Ejercicio 6:}{16}{section*.11}}
\newlabel{resoluciuxf3n-ejercicio-6}{{1.1}{16}{Resolución Ejercicio 6:}{section*.12}{}}
\@writefile{toc}{\contentsline {paragraph}{Resoluci\IeC {\'o}n Ejercicio 6:}{16}{section*.12}}
